Lab 10
…
1b. Is there anything on this visualization which would make you supicious (hint: there is)? What is it?

1. 2020 hasn't happened yet... but, maybe these are pre-sales? 2. Lots of NA values... what should we do with them (in real life: speak to a domain expert)? 3. Not sure all sales are fully account in the most recent years (again: speak to a domain expert)

2a. Whats wrong with the below dataframe? Fix it.

(videogame_sales_data2 <- videogame_sales_data %>% 
  gather(NA_Sales, EU_Sales, JP_Sales, Other_Sales, Global_Sales))

## # A tibble: 49,794 x 8
##     Rank Name           Platform Year  Genre   Publisher NA_Sales EU_Sales
##    <int> <chr>          <chr>    <chr> <chr>   <chr>     <chr>       <dbl>
##  1     1 Wii Sports     Wii      2006  Sports  Nintendo  JP_Sales     3.77
##  2     2 Super Mario B NES      1985  Platfo Nintendo  JP_Sales     6.81
##  3     3 Mario Kart Wii Wii      2008  Racing  Nintendo  JP_Sales     3.79
##  4     4 Wii Sports Re Wii      2009  Sports  Nintendo  JP_Sales     3.28
##  5     5 Pokemon Red/P GB       1996  Role-P Nintendo  JP_Sales    10.2 
##  6     6 Tetris         GB       1989  Puzzle  Nintendo  JP_Sales     4.22
##  7     7 New Super Mar DS       2006  Platfo Nintendo  JP_Sales     6.5 
##  8     8 Wii Play       Wii      2006  Misc    Nintendo  JP_Sales     2.93
##  9     9 New Super Mar Wii      2009  Platfo Nintendo  JP_Sales     4.7 
## 10    10 Duck Hunt      NES      1984  Shooter Nintendo  JP_Sales     0.28
## # ... with 49,784 more rows

(videogame_sales_data2 <- videogame_sales_data %>% 
  gather(NA_Sales, EU_Sales, JP_Sales, Other_Sales, Global_Sales, key = 'Region', value = 'Sales'))

## # A tibble: 82,990 x 8
##     Rank Name              Platform Year  Genre    Publisher Region  Sales
##    <int> <chr>             <chr>    <chr> <chr>    <chr>     <chr>   <dbl>
##  1     1 Wii Sports        Wii      2006  Sports   Nintendo  NA_Sal  41.5
##  2     2 Super Mario Bros. NES      1985  Platform Nintendo  NA_Sal  29.1
##  3     3 Mario Kart Wii    Wii      2008  Racing   Nintendo  NA_Sal  15.8
##  4     4 Wii Sports Resort Wii      2009  Sports   Nintendo  NA_Sal  15.8
##  5     5 Pokemon Red/Poke GB       1996  Role-Pl Nintendo  NA_Sal  11.3
##  6     6 Tetris            GB       1989  Puzzle   Nintendo  NA_Sal  23.2
##  7     7 New Super Mario  DS       2006  Platform Nintendo  NA_Sal  11.4
##  8     8 Wii Play          Wii      2006  Misc     Nintendo  NA_Sal  14.0
##  9     9 New Super Mario  Wii      2009  Platform Nintendo  NA_Sal  14.6
## 10    10 Duck Hunt         NES      1984  Shooter  Nintendo  NA_Sal  26.9
## # ... with 82,980 more rows
…
